<svg xmlns="http://www.w3.org/2000/svg" width="260" height="380" viewBox="0 0 68.792 100.542">
  <defs>
    <marker orient="auto" refY="0" refX="0" id="a" overflow="visible">
      <path d="M1.926 1.21L-1.352.005l3.278-1.206a2.05 2.05 0 000 2.411z" fill="#a2ad00" fill-rule="evenodd" stroke="#a2ad00" stroke-width=".1875" stroke-linejoin="round"/>
    </marker>
    <marker orient="auto" refY="0" refX="0" id="b" overflow="visible">
      <path d="M-1.926-1.21L1.352-.005l-3.278 1.206a2.05 2.05 0 000-2.411z" fill="#a2ad00" fill-rule="evenodd" stroke="#a2ad00" stroke-width=".1875" stroke-linejoin="round"/>
    </marker>
  </defs>
  <path d="M15.66 219.496h111.852" fill="none" stroke="#adb5bd" stroke-width="1.013" stroke-dasharray="4.053 2.027" transform="matrix(.00118 -.70542 .7768 .00139 -154.565 99.596)"/>
  <path d="M15.764 242.943h111.852" fill="none" stroke="#adb5bd" stroke-width="1.013" transform="matrix(.00118 -.70542 .7768 .00139 -154.565 99.596)"/>
  <path d="M15.676 264.438h111.851" fill="none" stroke="#adb5bd" stroke-width="1.013" stroke-dasharray="4.053 2.027" transform="matrix(.00118 -.70542 .7768 .00139 -154.565 99.596)"/>
  <path d="M72.504 221.09l.395 41.828" fill="#a2ad00" stroke="#a2ad00" stroke-width=".881" stroke-dasharray=".881 .881" marker-start="url(#a)" marker-end="url(#b)" transform="matrix(.00118 -.70542 .7768 .00139 -154.565 99.596)"/>
  <g fill="none" stroke="#0065bd">
    <path d="M143.578 200.081c-26.513 4.692-53.806 20.335-70.3 42.311m-3.038 3.612c-11.93 19.256-26.095 27.92-63.428 41.664" stroke-width="3.076" transform="matrix(.0087 .69706 .7226 -.0084 -142.785 .693)"/>
    <path d="M73.744 245.16a2.34 2.382 0 01-3.135 1.076 2.34 2.382 0 01-1.057-3.193 2.34 2.382 0 013.135-1.076 2.34 2.382 0 011.057 3.192" stroke-width="1.5" transform="matrix(.0087 .69706 .7226 -.0084 -142.785 .693)"/>
  </g>
  <text style="line-height:1.25000012" x="39.328" y="56.922" transform="scale(1.01816 .98217)" font-weight="400" font-size="3.329" font-family="sans-serif" letter-spacing="0" word-spacing="0" stroke-width=".188">
    <tspan x="39.328" y="56.922">+ m<tspan baseline-shift="sub">L</tspan></tspan>
  </text>
  <text style="line-height:1.25000012" x="22.279" y="42.983" transform="scale(1.01816 .98217)" font-weight="400" font-size="3.005" font-family="sans-serif" letter-spacing="0" word-spacing="0" stroke-width=".188">
    <tspan x="22.279" y="42.983" font-size="3.329">- m<tspan baseline-shift="sub">L</tspan></tspan>
  </text>
</svg>
